…
## Import data

``` r
data <- read_csv(here("cardinal_playback.csv"))
```

``` r
# have a brief check for the imported data. 
data
```

    ## # A tibble: 1,626 × 10
    ##    date       time   location beaufort ARU   plot_type direction dista…¹ song_…²
    ##    <date>     <time> <chr>       <dbl> <chr> <chr>     <chr>       <dbl>   <dbl>
    ##  1 2022-05-01 08:00  PB              0 PB    PB        N               0       1
    ##  2 2022-05-01 08:00  PB              0 PB    PB        N               0       2
    ##  3 2022-05-01 08:00  PB              0 PB    PB        N               0       3
    ##  4 2022-05-01 08:00  PB              0 PB    PB        N               0       4
    ##  5 2022-05-01 08:00  PB              0 PB    PB        N               0       6
    ##  6 2022-05-01 08:00  PB              0 PB    PB        N               0       7
    ##  7 2022-06-14 11:48  14_35           0 NEW   F         E              50       1
    ##  8 2022-06-14 11:48  14_35           0 NEW   F         E              50       2
    ##  9 2022-06-14 11:48  14_35           0 NEW   F         E              50       3
    ## 10 2022-06-14 11:48  14_35           0 NEW   F         E              50       4
    ## # … with 1,616 more rows, 1 more variable: confidence <dbl>, and abbreviated
    ## #   variable names ¹​distance, ²​song_exp

``` r
# filter out non-necessary data and standardize the object type.
# change the direction, as E & W should be marked as Side
data_clean <- data %>%
  filter(distance != 0) %>%
  mutate(beaufort = as_factor(beaufort),
         distance = as_factor(distance),
         song_exp = as_factor(song_exp)) %>% 
  mutate(direction = if_else(direction == "E" | direction == "W", "Side", direction)) %>%
  mutate(confidence = if_else(confidence == 0, 0.00000001, confidence))
data_clean
```

    ## # A tibble: 1,620 × 10
    ##    date       time   location beaufort ARU   plot_type direction dista…¹ song_…²
    ##    <date>     <time> <chr>    <fct>    <chr> <chr>     <chr>     <fct>   <fct>  
    ##  1 2022-06-14 11:48  14_35    0        NEW   F         Side      50      1      
    ##  2 2022-06-14 11:48  14_35    0        NEW   F         Side      50      2      
    ##  3 2022-06-14 11:48  14_35    0        NEW   F         Side      50      3      
    ##  4 2022-06-14 11:48  14_35    0        NEW   F         Side      50      4      
    ##  5 2022-06-14 11:48  14_35    0        NEW   F         Side      50      6      
    ##  6 2022-06-14 11:48  14_35    0        NEW   F         Side      50      7      
    ##  7 2022-06-14 11:48  14_35    0        NEW   F         Side      75      1      
    ##  8 2022-06-14 11:48  14_35    0        NEW   F         Side      75      2      
    ##  9 2022-06-14 11:48  14_35    0        NEW   F         Side      75      3      
    ## 10 2022-06-14 11:48  14_35    0        NEW   F         Side      75      4      
    ## # … with 1,610 more rows, 1 more variable: confidence <dbl>, and abbreviated
    ## #   variable names ¹​distance, ²​song_exp
…
